info face="Troika" size=30 bold=0 italic=0 charset="" unicode=0 stretchH=100 smooth=1 aa=1 padding=0,0,0,0 spacing=0,0
common lineHeight=35 base=26 scaleW=512 scaleH=1024 pages=1 packed=0
page id=0 file="font_troika_30pt.png"
chars count=239
char id=32   x=0     y=0     width=0     height=0     xoffset=0     yoffset=26    xadvance=7     page=0  chnl=0 
char id=125   x=0     y=0     width=10     height=27     xoffset=-1     yoffset=4    xadvance=8     page=0  chnl=0 
char id=123   x=10     y=0     width=10     height=27     xoffset=0     yoffset=4    xadvance=8     page=0  chnl=0 
char id=113   x=20     y=0     width=17     height=27     xoffset=1     yoffset=7    xadvance=17     page=0  chnl=0 
char id=81   x=37     y=0     width=17     height=27     xoffset=1     yoffset=7    xadvance=17     page=0  chnl=0 
char id=41   x=54     y=0     width=9     height=27     xoffset=-1     yoffset=4    xadvance=8     page=0  chnl=0 
char id=40   x=63     y=0     width=9     height=27     xoffset=1     yoffset=4    xadvance=8     page=0  chnl=0 
char id=1118   x=72     y=0     width=17     height=26     xoffset=0     yoffset=1    xadvance=17     page=0  chnl=0 
char id=1038   x=89     y=0     width=17     height=26     xoffset=0     yoffset=1    xadvance=17     page=0  chnl=0 
char id=248   x=106     y=0     width=17     height=26     xoffset=1     yoffset=4    xadvance=17     page=0  chnl=0 
char id=216   x=123     y=0     width=17     height=26     xoffset=1     yoffset=4    xadvance=17     page=0  chnl=0 
char id=166   x=140     y=0     width=5     height=26     xoffset=1     yoffset=4    xadvance=6     page=0  chnl=0 
char id=124   x=145     y=0     width=5     height=26     xoffset=1     yoffset=4    xadvance=6     page=0  chnl=0 
char id=36   x=150     y=0     width=15     height=26     xoffset=0     yoffset=4    xadvance=14     page=0  chnl=0 
char id=253   x=165     y=0     width=18     height=25     xoffset=0     yoffset=2    xadvance=17     page=0  chnl=0 
char id=251   x=183     y=0     width=17     height=25     xoffset=1     yoffset=2    xadvance=17     page=0  chnl=0 
char id=244   x=200     y=0     width=17     height=25     xoffset=1     yoffset=2    xadvance=17     page=0  chnl=0 
char id=238   x=217     y=0     width=10     height=25     xoffset=0     yoffset=2    xadvance=9     page=0  chnl=0 
char id=234   x=227     y=0     width=14     height=25     xoffset=1     yoffset=2    xadvance=14     page=0  chnl=0 
char id=231   x=241     y=0     width=14     height=25     xoffset=1     yoffset=6    xadvance=14     page=0  chnl=0 
char id=229   x=255     y=0     width=18     height=25     xoffset=0     yoffset=2    xadvance=16     page=0  chnl=0 
char id=227   x=273     y=0     width=18     height=25     xoffset=0     yoffset=2    xadvance=16     page=0  chnl=0 
char id=226   x=291     y=0     width=18     height=25     xoffset=0     yoffset=2    xadvance=16     page=0  chnl=0 
char id=221   x=309     y=0     width=18     height=25     xoffset=0     yoffset=2    xadvance=17     page=0  chnl=0 
char id=219   x=327     y=0     width=17     height=25     xoffset=1     yoffset=2    xadvance=17     page=0  chnl=0 
char id=212   x=344     y=0     width=17     height=25     xoffset=1     yoffset=2    xadvance=17     page=0  chnl=0 
char id=206   x=361     y=0     width=10     height=25     xoffset=0     yoffset=2    xadvance=9     page=0  chnl=0 
char id=202   x=371     y=0     width=14     height=25     xoffset=1     yoffset=2    xadvance=14     page=0  chnl=0 
char id=199   x=385     y=0     width=14     height=25     xoffset=1     yoffset=6    xadvance=14     page=0  chnl=0 
char id=197   x=399     y=0     width=18     height=25     xoffset=0     yoffset=2    xadvance=16     page=0  chnl=0 
char id=195   x=417     y=0     width=18     height=25     xoffset=0     yoffset=2    xadvance=16     page=0  chnl=0 
char id=194   x=435     y=0     width=18     height=25     xoffset=0     yoffset=2    xadvance=16     page=0  chnl=0 
char id=93   x=453     y=0     width=8     height=25     xoffset=-1     yoffset=5    xadvance=7     page=0  chnl=0 
char id=91   x=461     y=0     width=8     height=25     xoffset=1     yoffset=5    xadvance=8     page=0  chnl=0 
char id=1039   x=469     y=0     width=17     height=24     xoffset=1     yoffset=7    xadvance=17     page=0  chnl=0 
char id=1036   x=486     y=0     width=18     height=24     xoffset=1     yoffset=3    xadvance=18     page=0  chnl=0 
char id=1107   x=0     y=27     width=14     height=24     xoffset=1     yoffset=3    xadvance=14     page=0  chnl=0 
char id=1026   x=14     y=27     width=20     height=24     xoffset=0     yoffset=7    xadvance=19     page=0  chnl=0 
char id=1111   x=34     y=27     width=10     height=24     xoffset=0     yoffset=3    xadvance=9     page=0  chnl=0 
char id=1105   x=44     y=27     width=14     height=24     xoffset=1     yoffset=3    xadvance=14     page=0  chnl=0 
char id=1031   x=58     y=27     width=10     height=24     xoffset=0     yoffset=3    xadvance=9     page=0  chnl=0 
char id=1025   x=68     y=27     width=14     height=24     xoffset=1     yoffset=3    xadvance=14     page=0  chnl=0 
char id=1119   x=82     y=27     width=17     height=24     xoffset=1     yoffset=7    xadvance=17     page=0  chnl=0 
char id=1116   x=99     y=27     width=18     height=24     xoffset=1     yoffset=3    xadvance=18     page=0  chnl=0 
char id=1027   x=117     y=27     width=14     height=24     xoffset=1     yoffset=3    xadvance=14     page=0  chnl=0 
char id=1106   x=131     y=27     width=20     height=24     xoffset=0     yoffset=7    xadvance=19     page=0  chnl=0 
char id=255   x=151     y=27     width=18     height=24     xoffset=0     yoffset=3    xadvance=17     page=0  chnl=0 
char id=252   x=169     y=27     width=17     height=24     xoffset=1     yoffset=3    xadvance=17     page=0  chnl=0 
char id=250   x=186     y=27     width=17     height=24     xoffset=1     yoffset=3    xadvance=17     page=0  chnl=0 
char id=249   x=203     y=27     width=17     height=24     xoffset=1     yoffset=3    xadvance=17     page=0  chnl=0 
char id=246   x=220     y=27     width=17     height=24     xoffset=1     yoffset=3    xadvance=17     page=0  chnl=0 
char id=245   x=237     y=27     width=17     height=24     xoffset=1     yoffset=3    xadvance=17     page=0  chnl=0 
char id=243   x=254     y=27     width=17     height=24     xoffset=1     yoffset=3    xadvance=17     page=0  chnl=0 
char id=242   x=271     y=27     width=17     height=24     xoffset=1     yoffset=3    xadvance=17     page=0  chnl=0 
char id=241   x=288     y=27     width=17     height=24     xoffset=1     yoffset=3    xadvance=18     page=0  chnl=0 
char id=239   x=305     y=27     width=10     height=24     xoffset=0     yoffset=3    xadvance=9     page=0  chnl=0 
char id=237   x=315     y=27     width=10     height=24     xoffset=1     yoffset=3    xadvance=9     page=0  chnl=0 
char id=236   x=325     y=27     width=10     height=24     xoffset=-1     yoffset=3    xadvance=9     page=0  chnl=0 
char id=235   x=335     y=27     width=14     height=24     xoffset=1     yoffset=3    xadvance=14     page=0  chnl=0 
char id=233   x=349     y=27     width=14     height=24     xoffset=1     yoffset=3    xadvance=14     page=0  chnl=0 
char id=232   x=363     y=27     width=14     height=24     xoffset=1     yoffset=3    xadvance=14     page=0  chnl=0 
char id=228   x=377     y=27     width=18     height=24     xoffset=0     yoffset=3    xadvance=16     page=0  chnl=0 
char id=225   x=395     y=27     width=18     height=24     xoffset=0     yoffset=3    xadvance=16     page=0  chnl=0 
char id=224   x=413     y=27     width=18     height=24     xoffset=0     yoffset=3    xadvance=16     page=0  chnl=0 
char id=220   x=431     y=27     width=17     height=24     xoffset=1     yoffset=3    xadvance=17     page=0  chnl=0 
char id=218   x=448     y=27     width=17     height=24     xoffset=1     yoffset=3    xadvance=17     page=0  chnl=0 
char id=217   x=465     y=27     width=17     height=24     xoffset=1     yoffset=3    xadvance=17     page=0  chnl=0 
char id=214   x=482     y=27     width=17     height=24     xoffset=1     yoffset=3    xadvance=17     page=0  chnl=0 
char id=213   x=0     y=51     width=17     height=24     xoffset=1     yoffset=3    xadvance=17     page=0  chnl=0 
char id=211   x=17     y=51     width=17     height=24     xoffset=1     yoffset=3    xadvance=17     page=0  chnl=0 
char id=210   x=34     y=51     width=17     height=24     xoffset=1     yoffset=3    xadvance=17     page=0  chnl=0 
char id=209   x=51     y=51     width=17     height=24     xoffset=1     yoffset=3    xadvance=18     page=0  chnl=0 
char id=207   x=68     y=51     width=10     height=24     xoffset=0     yoffset=3    xadvance=9     page=0  chnl=0 
char id=205   x=78     y=51     width=10     height=24     xoffset=1     yoffset=3    xadvance=9     page=0  chnl=0 
char id=204   x=88     y=51     width=10     height=24     xoffset=-1     yoffset=3    xadvance=9     page=0  chnl=0 
char id=203   x=98     y=51     width=14     height=24     xoffset=1     yoffset=3    xadvance=14     page=0  chnl=0 
char id=201   x=112     y=51     width=14     height=24     xoffset=1     yoffset=3    xadvance=14     page=0  chnl=0 
char id=200   x=126     y=51     width=14     height=24     xoffset=1     yoffset=3    xadvance=14     page=0  chnl=0 
char id=196   x=140     y=51     width=18     height=24     xoffset=0     yoffset=3    xadvance=16     page=0  chnl=0 
char id=193   x=158     y=51     width=18     height=24     xoffset=0     yoffset=3    xadvance=16     page=0  chnl=0 
char id=192   x=176     y=51     width=18     height=24     xoffset=0     yoffset=3    xadvance=16     page=0  chnl=0 
char id=167   x=194     y=51     width=13     height=24     xoffset=1     yoffset=6    xadvance=13     page=0  chnl=0 
char id=1169   x=207     y=51     width=15     height=23     xoffset=1     yoffset=4    xadvance=15     page=0  chnl=0 
char id=1168   x=222     y=51     width=15     height=23     xoffset=1     yoffset=4    xadvance=15     page=0  chnl=0 
char id=162   x=237     y=51     width=13     height=23     xoffset=1     yoffset=6    xadvance=14     page=0  chnl=0 
char id=92   x=250     y=51     width=12     height=23     xoffset=-1     yoffset=6    xadvance=9     page=0  chnl=0 
char id=47   x=262     y=51     width=12     height=23     xoffset=-1     yoffset=6    xadvance=9     page=0  chnl=0 
char id=8240   x=274     y=51     width=26     height=22     xoffset=0     yoffset=6    xadvance=26     page=0  chnl=0 
char id=189   x=300     y=51     width=18     height=22     xoffset=0     yoffset=6    xadvance=17     page=0  chnl=0 
char id=188   x=318     y=51     width=18     height=22     xoffset=0     yoffset=6    xadvance=17     page=0  chnl=0 
char id=64   x=336     y=51     width=20     height=22     xoffset=0     yoffset=6    xadvance=19     page=0  chnl=0 
char id=37   x=356     y=51     width=19     height=22     xoffset=0     yoffset=6    xadvance=18     page=0  chnl=0 
char id=1033   x=375     y=51     width=29     height=21     xoffset=0     yoffset=7    xadvance=27     page=0  chnl=0 
char id=1109   x=404     y=51     width=15     height=21     xoffset=0     yoffset=7    xadvance=14     page=0  chnl=0 
char id=1029   x=419     y=51     width=15     height=21     xoffset=0     yoffset=7    xadvance=14     page=0  chnl=0 
char id=1113   x=434     y=51     width=27     height=21     xoffset=0     yoffset=7    xadvance=26     page=0  chnl=0 
char id=230   x=461     y=51     width=24     height=21     xoffset=0     yoffset=7    xadvance=23     page=0  chnl=0 
char id=198   x=485     y=51     width=24     height=21     xoffset=0     yoffset=7    xadvance=23     page=0  chnl=0 
char id=190   x=0     y=75     width=18     height=21     xoffset=0     yoffset=7    xadvance=17     page=0  chnl=0 
char id=181   x=18     y=75     width=17     height=21     xoffset=0     yoffset=11    xadvance=16     page=0  chnl=0 
char id=127   x=35     y=75     width=15     height=21     xoffset=1     yoffset=7    xadvance=16     page=0  chnl=0 
char id=119   x=50     y=75     width=23     height=21     xoffset=0     yoffset=7    xadvance=22     page=0  chnl=0 
char id=118   x=73     y=75     width=19     height=21     xoffset=0     yoffset=6    xadvance=17     page=0  chnl=0 
char id=115   x=92     y=75     width=15     height=21     xoffset=0     yoffset=7    xadvance=14     page=0  chnl=0 
char id=114   x=107     y=75     width=18     height=21     xoffset=1     yoffset=7    xadvance=17     page=0  chnl=0 
char id=110   x=125     y=75     width=17     height=21     xoffset=1     yoffset=6    xadvance=18     page=0  chnl=0 
char id=109   x=142     y=75     width=20     height=21     xoffset=1     yoffset=6    xadvance=21     page=0  chnl=0 
char id=106   x=162     y=75     width=14     height=21     xoffset=0     yoffset=7    xadvance=14     page=0  chnl=0 
char id=99   x=176     y=75     width=14     height=21     xoffset=1     yoffset=6    xadvance=14     page=0  chnl=0 
char id=87   x=190     y=75     width=23     height=21     xoffset=0     yoffset=7    xadvance=22     page=0  chnl=0 
char id=86   x=213     y=75     width=19     height=21     xoffset=0     yoffset=6    xadvance=17     page=0  chnl=0 
char id=83   x=232     y=75     width=15     height=21     xoffset=0     yoffset=7    xadvance=14     page=0  chnl=0 
char id=82   x=247     y=75     width=18     height=21     xoffset=1     yoffset=7    xadvance=17     page=0  chnl=0 
char id=78   x=265     y=75     width=17     height=21     xoffset=1     yoffset=6    xadvance=18     page=0  chnl=0 
char id=77   x=282     y=75     width=20     height=21     xoffset=1     yoffset=6    xadvance=21     page=0  chnl=0 
char id=74   x=302     y=75     width=14     height=21     xoffset=0     yoffset=7    xadvance=14     page=0  chnl=0 
char id=67   x=316     y=75     width=14     height=21     xoffset=1     yoffset=6    xadvance=14     page=0  chnl=0 
char id=57   x=330     y=75     width=16     height=21     xoffset=0     yoffset=7    xadvance=15     page=0  chnl=0 
char id=55   x=346     y=75     width=15     height=21     xoffset=0     yoffset=7    xadvance=14     page=0  chnl=0 
char id=1035   x=361     y=75     width=20     height=20     xoffset=0     yoffset=7    xadvance=19     page=0  chnl=0 
char id=1034   x=381     y=75     width=26     height=20     xoffset=1     yoffset=7    xadvance=26     page=0  chnl=0 
char id=8364   x=407     y=75     width=16     height=20     xoffset=-1     yoffset=7    xadvance=14     page=0  chnl=0 
char id=8225   x=423     y=75     width=12     height=20     xoffset=0     yoffset=7    xadvance=11     page=0  chnl=0 
char id=8224   x=435     y=75     width=12     height=20     xoffset=0     yoffset=7    xadvance=11     page=0  chnl=0 
char id=1112   x=447     y=75     width=14     height=20     xoffset=0     yoffset=7    xadvance=14     page=0  chnl=0 
char id=1108   x=461     y=75     width=15     height=20     xoffset=0     yoffset=7    xadvance=14     page=0  chnl=0 
char id=1057   x=476     y=75     width=14     height=20     xoffset=1     yoffset=7    xadvance=14     page=0  chnl=0 
char id=1110   x=490     y=75     width=8     height=20     xoffset=1     yoffset=7    xadvance=9     page=0  chnl=0 
char id=1030   x=498     y=75     width=8     height=20     xoffset=1     yoffset=7    xadvance=9     page=0  chnl=0 
char id=1028   x=0     y=96     width=15     height=20     xoffset=0     yoffset=7    xadvance=14     page=0  chnl=0 
char id=1032   x=15     y=96     width=14     height=20     xoffset=0     yoffset=7    xadvance=14     page=0  chnl=0 
char id=1115   x=29     y=96     width=20     height=20     xoffset=0     yoffset=7    xadvance=19     page=0  chnl=0 
char id=1114   x=49     y=96     width=25     height=20     xoffset=1     yoffset=7    xadvance=24     page=0  chnl=0 
char id=1056   x=74     y=96     width=16     height=20     xoffset=1     yoffset=7    xadvance=16     page=0  chnl=0 
char id=254   x=90     y=96     width=16     height=20     xoffset=1     yoffset=7    xadvance=16     page=0  chnl=0 
char id=240   x=106     y=96     width=18     height=20     xoffset=0     yoffset=7    xadvance=17     page=0  chnl=0 
char id=223   x=124     y=96     width=18     height=20     xoffset=1     yoffset=7    xadvance=17     page=0  chnl=0 
char id=222   x=142     y=96     width=16     height=20     xoffset=1     yoffset=7    xadvance=16     page=0  chnl=0 
char id=208   x=158     y=96     width=18     height=20     xoffset=0     yoffset=7    xadvance=17     page=0  chnl=0 
char id=191   x=176     y=96     width=14     height=20     xoffset=1     yoffset=7    xadvance=14     page=0  chnl=0 
char id=182   x=190     y=96     width=18     height=20     xoffset=-1     yoffset=7    xadvance=17     page=0  chnl=0 
char id=174   x=208     y=96     width=18     height=20     xoffset=0     yoffset=7    xadvance=18     page=0  chnl=0 
char id=169   x=226     y=96     width=17     height=20     xoffset=1     yoffset=7    xadvance=18     page=0  chnl=0 
char id=165   x=243     y=96     width=18     height=20     xoffset=0     yoffset=7    xadvance=17     page=0  chnl=0 
char id=163   x=261     y=96     width=14     height=20     xoffset=0     yoffset=7    xadvance=13     page=0  chnl=0 
char id=161   x=275     y=96     width=8     height=20     xoffset=1     yoffset=7    xadvance=9     page=0  chnl=0 
char id=122   x=283     y=96     width=15     height=20     xoffset=0     yoffset=7    xadvance=14     page=0  chnl=0 
char id=121   x=298     y=96     width=18     height=20     xoffset=0     yoffset=7    xadvance=17     page=0  chnl=0 
char id=120   x=316     y=96     width=18     height=20     xoffset=0     yoffset=7    xadvance=17     page=0  chnl=0 
char id=117   x=334     y=96     width=17     height=20     xoffset=1     yoffset=7    xadvance=17     page=0  chnl=0 
char id=116   x=351     y=96     width=16     height=20     xoffset=0     yoffset=7    xadvance=15     page=0  chnl=0 
char id=112   x=367     y=96     width=16     height=20     xoffset=1     yoffset=7    xadvance=16     page=0  chnl=0 
char id=111   x=383     y=96     width=17     height=20     xoffset=1     yoffset=7    xadvance=17     page=0  chnl=0 
char id=108   x=400     y=96     width=13     height=20     xoffset=1     yoffset=7    xadvance=13     page=0  chnl=0 
char id=107   x=413     y=96     width=18     height=20     xoffset=1     yoffset=7    xadvance=18     page=0  chnl=0 
char id=105   x=431     y=96     width=8     height=20     xoffset=1     yoffset=7    xadvance=9     page=0  chnl=0 
char id=104   x=439     y=96     width=17     height=20     xoffset=1     yoffset=7    xadvance=18     page=0  chnl=0 
char id=103   x=456     y=96     width=16     height=20     xoffset=1     yoffset=7    xadvance=16     page=0  chnl=0 
char id=102   x=472     y=96     width=14     height=20     xoffset=1     yoffset=7    xadvance=15     page=0  chnl=0 
char id=101   x=486     y=96     width=14     height=20     xoffset=1     yoffset=7    xadvance=14     page=0  chnl=0 
char id=100   x=0     y=116     width=17     height=20     xoffset=1     yoffset=7    xadvance=17     page=0  chnl=0 
char id=98   x=17     y=116     width=17     height=20     xoffset=1     yoffset=7    xadvance=17     page=0  chnl=0 
char id=97   x=34     y=116     width=18     height=20     xoffset=0     yoffset=7    xadvance=16     page=0  chnl=0 
char id=90   x=52     y=116     width=15     height=20     xoffset=0     yoffset=7    xadvance=14     page=0  chnl=0 
char id=89   x=67     y=116     width=18     height=20     xoffset=0     yoffset=7    xadvance=17     page=0  chnl=0 
char id=88   x=85     y=116     width=18     height=20     xoffset=0     yoffset=7    xadvance=17     page=0  chnl=0 
char id=85   x=103     y=116     width=17     height=20     xoffset=1     yoffset=7    xadvance=17     page=0  chnl=0 
char id=84   x=120     y=116     width=16     height=20     xoffset=0     yoffset=7    xadvance=15     page=0  chnl=0 
char id=80   x=136     y=116     width=16     height=20     xoffset=1     yoffset=7    xadvance=16     page=0  chnl=0 
char id=79   x=152     y=116     width=17     height=20     xoffset=1     yoffset=7    xadvance=17     page=0  chnl=0 
char id=76   x=169     y=116     width=13     height=20     xoffset=1     yoffset=7    xadvance=13     page=0  chnl=0 
char id=75   x=182     y=116     width=18     height=20     xoffset=1     yoffset=7    xadvance=18     page=0  chnl=0 
char id=73   x=200     y=116     width=8     height=20     xoffset=1     yoffset=7    xadvance=9     page=0  chnl=0 
char id=72   x=208     y=116     width=17     height=20     xoffset=1     yoffset=7    xadvance=18     page=0  chnl=0 
char id=71   x=225     y=116     width=16     height=20     xoffset=1     yoffset=7    xadvance=16     page=0  chnl=0 
char id=70   x=241     y=116     width=14     height=20     xoffset=1     yoffset=7    xadvance=15     page=0  chnl=0 
char id=69   x=255     y=116     width=14     height=20     xoffset=1     yoffset=7    xadvance=14     page=0  chnl=0 
char id=68   x=269     y=116     width=17     height=20     xoffset=1     yoffset=7    xadvance=17     page=0  chnl=0 
char id=66   x=286     y=116     width=17     height=20     xoffset=1     yoffset=7    xadvance=17     page=0  chnl=0 
char id=65   x=303     y=116     width=18     height=20     xoffset=0     yoffset=7    xadvance=16     page=0  chnl=0 
char id=63   x=321     y=116     width=15     height=20     xoffset=0     yoffset=7    xadvance=14     page=0  chnl=0 
char id=59   x=336     y=116     width=7     height=20     xoffset=1     yoffset=11    xadvance=8     page=0  chnl=0 
char id=56   x=343     y=116     width=16     height=20     xoffset=1     yoffset=7    xadvance=16     page=0  chnl=0 
char id=54   x=359     y=116     width=16     height=20     xoffset=0     yoffset=7    xadvance=15     page=0  chnl=0 
char id=53   x=375     y=116     width=14     height=20     xoffset=1     yoffset=7    xadvance=15     page=0  chnl=0 
char id=52   x=389     y=116     width=16     height=20     xoffset=0     yoffset=7    xadvance=15     page=0  chnl=0 
char id=51   x=405     y=116     width=15     height=20     xoffset=0     yoffset=7    xadvance=14     page=0  chnl=0 
char id=50   x=420     y=116     width=15     height=20     xoffset=0     yoffset=7    xadvance=14     page=0  chnl=0 
char id=49   x=435     y=116     width=12     height=20     xoffset=0     yoffset=7    xadvance=12     page=0  chnl=0 
char id=48   x=447     y=116     width=16     height=20     xoffset=1     yoffset=7    xadvance=17     page=0  chnl=0 
char id=38   x=463     y=116     width=18     height=20     xoffset=0     yoffset=7    xadvance=17     page=0  chnl=0 
char id=35   x=481     y=116     width=17     height=20     xoffset=-1     yoffset=7    xadvance=14     page=0  chnl=0 
char id=33   x=498     y=116     width=8     height=20     xoffset=1     yoffset=7    xadvance=9     page=0  chnl=0 
char id=177   x=0     y=136     width=13     height=18     xoffset=0     yoffset=9    xadvance=12     page=0  chnl=0 
char id=164   x=13     y=136     width=16     height=16     xoffset=0     yoffset=10    xadvance=16     page=0  chnl=0 
char id=58   x=29     y=136     width=7     height=16     xoffset=1     yoffset=11    xadvance=8     page=0  chnl=0 
char id=62   x=36     y=136     width=13     height=15     xoffset=0     yoffset=10    xadvance=12     page=0  chnl=0 
char id=60   x=49     y=136     width=13     height=15     xoffset=0     yoffset=10    xadvance=12     page=0  chnl=0 
char id=8250   x=62     y=136     width=8     height=14     xoffset=0     yoffset=11    xadvance=7     page=0  chnl=0 
char id=247   x=70     y=136     width=13     height=14     xoffset=0     yoffset=10    xadvance=12     page=0  chnl=0 
char id=43   x=83     y=136     width=13     height=14     xoffset=0     yoffset=10    xadvance=12     page=0  chnl=0 
char id=8249   x=96     y=136     width=8     height=13     xoffset=0     yoffset=11    xadvance=7     page=0  chnl=0 
char id=215   x=104     y=136     width=13     height=13     xoffset=0     yoffset=11    xadvance=12     page=0  chnl=0 
char id=187   x=117     y=136     width=13     height=13     xoffset=0     yoffset=11    xadvance=12     page=0  chnl=0 
char id=171   x=130     y=136     width=13     height=13     xoffset=0     yoffset=11    xadvance=12     page=0  chnl=0 
char id=126   x=143     y=136     width=14     height=12     xoffset=-1     yoffset=7    xadvance=12     page=0  chnl=0 
char id=8222   x=157     y=136     width=15     height=11     xoffset=0     yoffset=20    xadvance=14     page=0  chnl=0 
char id=8218   x=172     y=136     width=8     height=11     xoffset=0     yoffset=20    xadvance=7     page=0  chnl=0 
char id=185   x=180     y=136     width=7     height=11     xoffset=0     yoffset=7    xadvance=6     page=0  chnl=0 
char id=179   x=187     y=136     width=8     height=11     xoffset=0     yoffset=7    xadvance=8     page=0  chnl=0 
char id=44   x=195     y=136     width=8     height=11     xoffset=0     yoffset=20    xadvance=7     page=0  chnl=0 
char id=8482   x=203     y=136     width=16     height=10     xoffset=0     yoffset=7    xadvance=15     page=0  chnl=0 
char id=8221   x=219     y=136     width=14     height=10     xoffset=0     yoffset=7    xadvance=14     page=0  chnl=0 
char id=8220   x=233     y=136     width=14     height=10     xoffset=0     yoffset=6    xadvance=14     page=0  chnl=0 
char id=8217   x=247     y=136     width=8     height=10     xoffset=0     yoffset=7    xadvance=7     page=0  chnl=0 
char id=8216   x=255     y=136     width=8     height=10     xoffset=0     yoffset=6    xadvance=7     page=0  chnl=0 
char id=186   x=263     y=136     width=8     height=10     xoffset=1     yoffset=7    xadvance=8     page=0  chnl=0 
char id=178   x=271     y=136     width=8     height=10     xoffset=0     yoffset=7    xadvance=8     page=0  chnl=0 
char id=170   x=279     y=136     width=9     height=10     xoffset=0     yoffset=7    xadvance=8     page=0  chnl=0 
char id=8226   x=288     y=136     width=10     height=9     xoffset=0     yoffset=12    xadvance=9     page=0  chnl=0 
char id=172   x=298     y=136     width=13     height=9     xoffset=0     yoffset=15    xadvance=12     page=0  chnl=0 
char id=61   x=311     y=136     width=13     height=9     xoffset=0     yoffset=13    xadvance=12     page=0  chnl=0 
char id=42   x=324     y=136     width=9     height=9     xoffset=0     yoffset=7    xadvance=8     page=0  chnl=0 
char id=176   x=333     y=136     width=9     height=8     xoffset=0     yoffset=7    xadvance=8     page=0  chnl=0 
char id=39   x=342     y=136     width=7     height=8     xoffset=0     yoffset=5    xadvance=6     page=0  chnl=0 
char id=34   x=349     y=136     width=12     height=8     xoffset=0     yoffset=5    xadvance=11     page=0  chnl=0 
char id=8230   x=361     y=136     width=20     height=7     xoffset=0     yoffset=20    xadvance=20     page=0  chnl=0 
char id=183   x=381     y=136     width=8     height=7     xoffset=0     yoffset=13    xadvance=7     page=0  chnl=0 
char id=173   x=389     y=136     width=10     height=7     xoffset=0     yoffset=13    xadvance=9     page=0  chnl=0 
char id=94   x=399     y=136     width=14     height=7     xoffset=-1     yoffset=14    xadvance=12     page=0  chnl=0 
char id=46   x=413     y=136     width=8     height=7     xoffset=0     yoffset=20    xadvance=7     page=0  chnl=0 
char id=45   x=421     y=136     width=10     height=7     xoffset=0     yoffset=13    xadvance=9     page=0  chnl=0 
char id=184   x=431     y=136     width=6     height=6     xoffset=0     yoffset=25    xadvance=5     page=0  chnl=0 
char id=8212   x=437     y=136     width=25     height=5     xoffset=0     yoffset=15    xadvance=24     page=0  chnl=0 
char id=8211   x=462     y=136     width=13     height=5     xoffset=0     yoffset=14    xadvance=12     page=0  chnl=0 
char id=180   x=475     y=136     width=9     height=5     xoffset=0     yoffset=2    xadvance=8     page=0  chnl=0 
char id=96   x=484     y=136     width=9     height=5     xoffset=0     yoffset=2    xadvance=8     page=0  chnl=0 
char id=95   x=493     y=136     width=13     height=5     xoffset=0     yoffset=25    xadvance=12     page=0  chnl=0 
char id=175   x=0     y=154     width=9     height=4     xoffset=0     yoffset=2    xadvance=8     page=0  chnl=0 
char id=168   x=9     y=154     width=10     height=4     xoffset=0     yoffset=3    xadvance=9     page=0  chnl=0 
